-- Merging decision tree log ---
manifest
ADDED from D:\Android\remote - WiFI\app\src\main\AndroidManifest.xml:17:1-60:12
INJECTED from D:\Android\remote - WiFI\app\src\main\AndroidManifest.xml:17:1-60:12
INJECTED from D:\Android\remote - WiFI\app\src\main\AndroidManifest.xml:17:1-60:12
INJECTED from D:\Android\remote - WiFI\app\src\main\AndroidManifest.xml:17:1-60:12
MERGED from [com.intuit.sdp:sdp-android:1.0.4] C:\Users\Feixin532\.gradle\caches\transforms-2\files-2.1\72eb092b316cfe7e9dcb38777221345a\AndroidManifest.xml:2:1-11:12
MERGED from [com.intuit.ssp:ssp-android:1.0.4] C:\Users\Feixin532\.gradle\caches\transforms-2\files-2.1\aab65885183651834ab13a9bb64bcf07\AndroidManifest.xml:2:1-11:12
MERGED from [com.android.support:design:26.1.0] C:\Users\Feixin532\.gradle\caches\transforms-2\files-2.1\331258dbe2b7dd842c503e6f2613fdd9\AndroidManifest.xml:17:1-31:12
MERGED from [com.yanzhenjie:permission:1.0.5] C:\Users\Feixin532\.gradle\caches\transforms-2\files-2.1\12f39d0d86c2cb8ad971ad5f0d8c637f\AndroidManifest.xml:17:1-25:12
MERGED from [com.yanzhenjie.alertdialog:alertdialog:1.0.0] C:\Users\Feixin532\.gradle\caches\transforms-2\files-2.1\b66ad2e47225966fab96edc99ddef385\AndroidManifest.xml:2:1-10:12
MERGED from [com.android.support:appcompat-v7:26.1.0] C:\Users\Feixin532\.gradle\caches\transforms-2\files-2.1\e902c54ac45c6c6889900456329c1fcb\AndroidManifest.xml:17:1-31:12
MERGED from [com.mylhyl:circleDialog:2.5.2] C:\Users\Feixin532\.gradle\caches\transforms-2\files-2.1\7c9f7ba78b06b827b703ffce848d9897\AndroidManifest.xml:2:1-14:12
MERGED from [com.crashlytics.sdk.android:crashlytics:2.9.4] C:\Users\Feixin532\.gradle\caches\transforms-2\files-2.1\7b4dbf147fe0fbeec3ae671038e2215d\AndroidManifest.xml:2:1-19:12
MERGED from [com.android.support:transition:26.1.0] C:\Users\Feixin532\.gradle\caches\transforms-2\files-2.1\b9af8a2df8f538873b303f610a5052b1\AndroidManifest.xml:17:1-28:12
MERGED from [com.android.support:support-v4:26.1.0] C:\Users\Feixin532\.gradle\caches\transforms-2\files-2.1\6b9c20d066bb87e7554e6dca55ade6df\AndroidManifest.xml:17:1-31:12
MERGED from [com.android.support:animated-vector-drawable:26.1.0] C:\Users\Feixin532\.gradle\caches\transforms-2\files-2.1\36d7f4cc534568e3df30e1b4b22eeef9\AndroidManifest.xml:17:1-28:12
MERGED from [com.android.support:support-vector-drawable:26.1.0] C:\Users\Feixin532\.gradle\caches\transforms-2\files-2.1\ab0d89c81d40a7fb3711600e3929b248\AndroidManifest.xml:17:1-28:12
MERGED from [com.android.support:recyclerview-v7:26.1.0] C:\Users\Feixin532\.gradle\caches\transforms-2\files-2.1\96cf779f9eb396a2695add0ad4680f44\AndroidManifest.xml:17:1-28:12
MERGED from [com.crashlytics.sdk.android:crashlytics-core:2.6.3] C:\Users\Feixin532\.gradle\caches\transforms-2\files-2.1\f23b120e4f3acf8b6ed20753d08afe2e\AndroidManifest.xml:45:1-56:12
MERGED from [com.crashlytics.sdk.android:beta:1.2.9] C:\Users\Feixin532\.gradle\caches\transforms-2\files-2.1\29b21fb1ab580e7e34c0abadc5bb092f\AndroidManifest.xml:2:1-13:12
MERGED from [com.crashlytics.sdk.android:answers:1.4.2] C:\Users\Feixin532\.gradle\caches\transforms-2\files-2.1\3c10636eb41c17612128ff67009b6861\AndroidManifest.xml:2:1-13:12
MERGED from [io.fabric.sdk.android:fabric:1.4.3] C:\Users\Feixin532\.gradle\caches\transforms-2\files-2.1\70fd9faec409ef14d057c8644904113b\AndroidManifest.xml:22:1-33:12
MERGED from [com.android.support:support-media-compat:26.1.0] C:\Users\Feixin532\.gradle\caches\transforms-2\files-2.1\defd8815fd31a4bc8756e8558b019db6\AndroidManifest.xml:17:1-31:12
MERGED from [com.android.support:support-fragment:26.1.0] C:\Users\Feixin532\.gradle\caches\transforms-2\files-2.1\65a10bdaf87480b31b00320586cc3e81\AndroidManifest.xml:17:1-31:12
MERGED from [com.android.support:support-core-utils:26.1.0] C:\Users\Feixin532\.gradle\caches\transforms-2\files-2.1\2547a961fdab69d91ba514f00f3e1f03\AndroidManifest.xml:17:1-31:12
MERGED from [com.android.support:support-core-ui:26.1.0] C:\Users\Feixin532\.gradle\caches\transforms-2\files-2.1\d6798f9403eceb30cb986f38c7ee653c\AndroidManifest.xml:17:1-31:12
MERGED from [com.android.support:support-compat:26.1.0] C:\Users\Feixin532\.gradle\caches\transforms-2\files-2.1\5f249282ef1f5fce06d8097e077a7b03\AndroidManifest.xml:17:1-31:12
MERGED from [android.arch.lifecycle:runtime:1.0.0] C:\Users\Feixin532\.gradle\caches\transforms-2\files-2.1\d1a97019430a0c9126945afd0ce06d21\AndroidManifest.xml:17:1-30:12
INJECTED from D:\Android\remote - WiFI\app\src\main\AndroidManifest.xml:17:1-60:12
INJECTED from D:\Android\remote - WiFI\app\src\main\AndroidManifest.xml:17:1-60:12
INJECTED from D:\Android\remote - WiFI\app\src\main\AndroidManifest.xml:17:1-60:12
	package
		ADDED from D:\Android\remote - WiFI\app\src\main\AndroidManifest.xml:18:5-37
		INJECTED from D:\Android\remote - WiFI\app\src\main\AndroidManifest.xml
		INJECTED from D:\Android\remote - WiFI\app\src\main\AndroidManifest.xml
	android:versionName
		INJECTED from D:\Android\remote - WiFI\app\src\main\AndroidManifest.xml
		ADDED from D:\Android\remote - WiFI\app\src\main\AndroidManifest.xml:17:1-60:12
		INJECTED from D:\Android\remote - WiFI\app\src\main\AndroidManifest.xml
	android:versionCode
		INJECTED from D:\Android\remote - WiFI\app\src\main\AndroidManifest.xml
		ADDED from D:\Android\remote - WiFI\app\src\main\AndroidManifest.xml:17:1-60:12
		INJECTED from D:\Android\remote - WiFI\app\src\main\AndroidManifest.xml
	xmlns:android
		ADDED from D:\Android\remote - WiFI\app\src\main\AndroidManifest.xml:17:11-69
uses-permission#android.permission.CHANGE_WIFI_STATE
ADDED from D:\Android\remote - WiFI\app\src\main\AndroidManifest.xml:20:5-76
	android:name
		ADDED from D:\Android\remote - WiFI\app\src\main\AndroidManifest.xml:20:22-73
uses-permission#android.permission.WRITE_EXTERNAL_STORAGE
ADDED from D:\Android\remote - WiFI\app\src\main\AndroidManifest.xml:21:5-81
	android:name
		ADDED from D:\Android\remote - WiFI\app\src\main\AndroidManifest.xml:21:22-78
uses-permission#android.permission.INTERNET
ADDED from D:\Android\remote - WiFI\app\src\main\AndroidManifest.xml:22:5-67
MERGED from [com.crashlytics.sdk.android:crashlytics:2.9.4] C:\Users\Feixin532\.gradle\caches\transforms-2\files-2.1\7b4dbf147fe0fbeec3ae671038e2215d\AndroidManifest.xml:9:5-67
MERGED from [com.crashlytics.sdk.android:crashlytics:2.9.4] C:\Users\Feixin532\.gradle\caches\transforms-2\files-2.1\7b4dbf147fe0fbeec3ae671038e2215d\AndroidManifest.xml:9:5-67
MERGED from [com.crashlytics.sdk.android:crashlytics-core:2.6.3] C:\Users\Feixin532\.gradle\caches\transforms-2\files-2.1\f23b120e4f3acf8b6ed20753d08afe2e\AndroidManifest.xml:52:5-67
MERGED from [com.crashlytics.sdk.android:crashlytics-core:2.6.3] C:\Users\Feixin532\.gradle\caches\transforms-2\files-2.1\f23b120e4f3acf8b6ed20753d08afe2e\AndroidManifest.xml:52:5-67
MERGED from [com.crashlytics.sdk.android:beta:1.2.9] C:\Users\Feixin532\.gradle\caches\transforms-2\files-2.1\29b21fb1ab580e7e34c0abadc5bb092f\AndroidManifest.xml:9:5-67
MERGED from [com.crashlytics.sdk.android:beta:1.2.9] C:\Users\Feixin532\.gradle\caches\transforms-2\files-2.1\29b21fb1ab580e7e34c0abadc5bb092f\AndroidManifest.xml:9:5-67
MERGED from [com.crashlytics.sdk.android:answers:1.4.2] C:\Users\Feixin532\.gradle\caches\transforms-2\files-2.1\3c10636eb41c17612128ff67009b6861\AndroidManifest.xml:9:5-67
MERGED from [com.crashlytics.sdk.android:answers:1.4.2] C:\Users\Feixin532\.gradle\caches\transforms-2\files-2.1\3c10636eb41c17612128ff67009b6861\AndroidManifest.xml:9:5-67
MERGED from [io.fabric.sdk.android:fabric:1.4.3] C:\Users\Feixin532\.gradle\caches\transforms-2\files-2.1\70fd9faec409ef14d057c8644904113b\AndroidManifest.xml:29:5-67
MERGED from [io.fabric.sdk.android:fabric:1.4.3] C:\Users\Feixin532\.gradle\caches\transforms-2\files-2.1\70fd9faec409ef14d057c8644904113b\AndroidManifest.xml:29:5-67
	android:name
		ADDED from D:\Android\remote - WiFI\app\src\main\AndroidManifest.xml:22:22-64
uses-permission#android.permission.ACCESS_NETWORK_STATE
ADDED from D:\Android\remote - WiFI\app\src\main\AndroidManifest.xml:23:5-79
	android:name
		ADDED from D:\Android\remote - WiFI\app\src\main\AndroidManifest.xml:23:22-76
uses-permission#android.permission.ACCESS_WIFI_STATE
ADDED from D:\Android\remote - WiFI\app\src\main\AndroidManifest.xml:24:5-76
	android:name
		ADDED from D:\Android\remote - WiFI\app\src\main\AndroidManifest.xml:24:22-73
application
ADDED from D:\Android\remote - WiFI\app\src\main\AndroidManifest.xml:28:5-58:19
MERGED from [com.android.support:design:26.1.0] C:\Users\Feixin532\.gradle\caches\transforms-2\files-2.1\331258dbe2b7dd842c503e6f2613fdd9\AndroidManifest.xml:25:5-29:19
MERGED from [com.android.support:design:26.1.0] C:\Users\Feixin532\.gradle\caches\transforms-2\files-2.1\331258dbe2b7dd842c503e6f2613fdd9\AndroidManifest.xml:25:5-29:19
MERGED from [com.android.support:appcompat-v7:26.1.0] C:\Users\Feixin532\.gradle\caches\transforms-2\files-2.1\e902c54ac45c6c6889900456329c1fcb\AndroidManifest.xml:25:5-29:19
MERGED from [com.android.support:appcompat-v7:26.1.0] C:\Users\Feixin532\.gradle\caches\transforms-2\files-2.1\e902c54ac45c6c6889900456329c1fcb\AndroidManifest.xml:25:5-29:19
MERGED from [com.mylhyl:circleDialog:2.5.2] C:\Users\Feixin532\.gradle\caches\transforms-2\files-2.1\7c9f7ba78b06b827b703ffce848d9897\AndroidManifest.xml:12:5-20
MERGED from [com.mylhyl:circleDialog:2.5.2] C:\Users\Feixin532\.gradle\caches\transforms-2\files-2.1\7c9f7ba78b06b827b703ffce848d9897\AndroidManifest.xml:12:5-20
MERGED from [com.crashlytics.sdk.android:crashlytics:2.9.4] C:\Users\Feixin532\.gradle\caches\transforms-2\files-2.1\7b4dbf147fe0fbeec3ae671038e2215d\AndroidManifest.xml:11:5-17:19
MERGED from [com.crashlytics.sdk.android:crashlytics:2.9.4] C:\Users\Feixin532\.gradle\caches\transforms-2\files-2.1\7b4dbf147fe0fbeec3ae671038e2215d\AndroidManifest.xml:11:5-17:19
MERGED from [com.android.support:transition:26.1.0] C:\Users\Feixin532\.gradle\caches\transforms-2\files-2.1\b9af8a2df8f538873b303f610a5052b1\AndroidManifest.xml:22:5-26:19
MERGED from [com.android.support:transition:26.1.0] C:\Users\Feixin532\.gradle\caches\transforms-2\files-2.1\b9af8a2df8f538873b303f610a5052b1\AndroidManifest.xml:22:5-26:19
MERGED from [com.android.support:support-v4:26.1.0] C:\Users\Feixin532\.gradle\caches\transforms-2\files-2.1\6b9c20d066bb87e7554e6dca55ade6df\AndroidManifest.xml:25:5-29:19
MERGED from [com.android.support:support-v4:26.1.0] C:\Users\Feixin532\.gradle\caches\transforms-2\files-2.1\6b9c20d066bb87e7554e6dca55ade6df\AndroidManifest.xml:25:5-29:19
MERGED from [com.android.support:animated-vector-drawable:26.1.0] C:\Users\Feixin532\.gradle\caches\transforms-2\files-2.1\36d7f4cc534568e3df30e1b4b22eeef9\AndroidManifest.xml:22:5-26:19
MERGED from [com.android.support:animated-vector-drawable:26.1.0] C:\Users\Feixin532\.gradle\caches\transforms-2\files-2.1\36d7f4cc534568e3df30e1b4b22eeef9\AndroidManifest.xml:22:5-26:19
MERGED from [com.android.support:support-vector-drawable:26.1.0] C:\Users\Feixin532\.gradle\caches\transforms-2\files-2.1\ab0d89c81d40a7fb3711600e3929b248\AndroidManifest.xml:22:5-26:19
MERGED from [com.android.support:support-vector-drawable:26.1.0] C:\Users\Feixin532\.gradle\caches\transforms-2\files-2.1\ab0d89c81d40a7fb3711600e3929b248\AndroidManifest.xml:22:5-26:19
MERGED from [com.android.support:recyclerview-v7:26.1.0] C:\Users\Feixin532\.gradle\caches\transforms-2\files-2.1\96cf779f9eb396a2695add0ad4680f44\AndroidManifest.xml:22:5-26:19
MERGED from [com.android.support:recyclerview-v7:26.1.0] C:\Users\Feixin532\.gradle\caches\transforms-2\files-2.1\96cf779f9eb396a2695add0ad4680f44\AndroidManifest.xml:22:5-26:19
MERGED from [com.crashlytics.sdk.android:crashlytics-core:2.6.3] C:\Users\Feixin532\.gradle\caches\transforms-2\files-2.1\f23b120e4f3acf8b6ed20753d08afe2e\AndroidManifest.xml:54:5-20
MERGED from [com.crashlytics.sdk.android:crashlytics-core:2.6.3] C:\Users\Feixin532\.gradle\caches\transforms-2\files-2.1\f23b120e4f3acf8b6ed20753d08afe2e\AndroidManifest.xml:54:5-20
MERGED from [com.crashlytics.sdk.android:beta:1.2.9] C:\Users\Feixin532\.gradle\caches\transforms-2\files-2.1\29b21fb1ab580e7e34c0abadc5bb092f\AndroidManifest.xml:11:5-20
MERGED from [com.crashlytics.sdk.android:beta:1.2.9] C:\Users\Feixin532\.gradle\caches\transforms-2\files-2.1\29b21fb1ab580e7e34c0abadc5bb092f\AndroidManifest.xml:11:5-20
MERGED from [com.crashlytics.sdk.android:answers:1.4.2] C:\Users\Feixin532\.gradle\caches\transforms-2\files-2.1\3c10636eb41c17612128ff67009b6861\AndroidManifest.xml:11:5-20
MERGED from [com.crashlytics.sdk.android:answers:1.4.2] C:\Users\Feixin532\.gradle\caches\transforms-2\files-2.1\3c10636eb41c17612128ff67009b6861\AndroidManifest.xml:11:5-20
MERGED from [io.fabric.sdk.android:fabric:1.4.3] C:\Users\Feixin532\.gradle\caches\transforms-2\files-2.1\70fd9faec409ef14d057c8644904113b\AndroidManifest.xml:31:5-20
MERGED from [io.fabric.sdk.android:fabric:1.4.3] C:\Users\Feixin532\.gradle\caches\transforms-2\files-2.1\70fd9faec409ef14d057c8644904113b\AndroidManifest.xml:31:5-20
MERGED from [com.android.support:support-media-compat:26.1.0] C:\Users\Feixin532\.gradle\caches\transforms-2\files-2.1\defd8815fd31a4bc8756e8558b019db6\AndroidManifest.xml:25:5-29:19
MERGED from [com.android.support:support-media-compat:26.1.0] C:\Users\Feixin532\.gradle\caches\transforms-2\files-2.1\defd8815fd31a4bc8756e8558b019db6\AndroidManifest.xml:25:5-29:19
MERGED from [com.android.support:support-fragment:26.1.0] C:\Users\Feixin532\.gradle\caches\transforms-2\files-2.1\65a10bdaf87480b31b00320586cc3e81\AndroidManifest.xml:25:5-29:19
MERGED from [com.android.support:support-fragment:26.1.0] C:\Users\Feixin532\.gradle\caches\transforms-2\files-2.1\65a10bdaf87480b31b00320586cc3e81\AndroidManifest.xml:25:5-29:19
MERGED from [com.android.support:support-core-utils:26.1.0] C:\Users\Feixin532\.gradle\caches\transforms-2\files-2.1\2547a961fdab69d91ba514f00f3e1f03\AndroidManifest.xml:25:5-29:19
MERGED from [com.android.support:support-core-utils:26.1.0] C:\Users\Feixin532\.gradle\caches\transforms-2\files-2.1\2547a961fdab69d91ba514f00f3e1f03\AndroidManifest.xml:25:5-29:19
MERGED from [com.android.support:support-core-ui:26.1.0] C:\Users\Feixin532\.gradle\caches\transforms-2\files-2.1\d6798f9403eceb30cb986f38c7ee653c\AndroidManifest.xml:25:5-29:19
MERGED from [com.android.support:support-core-ui:26.1.0] C:\Users\Feixin532\.gradle\caches\transforms-2\files-2.1\d6798f9403eceb30cb986f38c7ee653c\AndroidManifest.xml:25:5-29:19
MERGED from [com.android.support:support-compat:26.1.0] C:\Users\Feixin532\.gradle\caches\transforms-2\files-2.1\5f249282ef1f5fce06d8097e077a7b03\AndroidManifest.xml:25:5-29:19
MERGED from [com.android.support:support-compat:26.1.0] C:\Users\Feixin532\.gradle\caches\transforms-2\files-2.1\5f249282ef1f5fce06d8097e077a7b03\AndroidManifest.xml:25:5-29:19
MERGED from [android.arch.lifecycle:runtime:1.0.0] C:\Users\Feixin532\.gradle\caches\transforms-2\files-2.1\d1a97019430a0c9126945afd0ce06d21\AndroidManifest.xml:24:5-28:19
MERGED from [android.arch.lifecycle:runtime:1.0.0] C:\Users\Feixin532\.gradle\caches\transforms-2\files-2.1\d1a97019430a0c9126945afd0ce06d21\AndroidManifest.xml:24:5-28:19
	android:label
		ADDED from D:\Android\remote - WiFI\app\src\main\AndroidManifest.xml:30:9-41
	android:icon
		ADDED from D:\Android\remote - WiFI\app\src\main\AndroidManifest.xml:29:9-42
activity#com.android.BluetoothRemote.splash
ADDED from D:\Android\remote - WiFI\app\src\main\AndroidManifest.xml:32:9-41:20
	android:screenOrientation
		ADDED from D:\Android\remote - WiFI\app\src\main\AndroidManifest.xml:36:13-49
	android:label
		ADDED from D:\Android\remote - WiFI\app\src\main\AndroidManifest.xml:34:13-45
	android:hardwareAccelerated
		ADDED from D:\Android\remote - WiFI\app\src\main\AndroidManifest.xml:35:13-48
	android:name
		ADDED from D:\Android\remote - WiFI\app\src\main\AndroidManifest.xml:33:13-62
intent-filter#action:name:android.intent.action.MAIN+category:name:android.intent.category.LAUNCHER
ADDED from D:\Android\remote - WiFI\app\src\main\AndroidManifest.xml:37:13-40:29
action#android.intent.action.MAIN
ADDED from D:\Android\remote - WiFI\app\src\main\AndroidManifest.xml:38:17-69
	android:name
		ADDED from D:\Android\remote - WiFI\app\src\main\AndroidManifest.xml:38:25-66
category#android.intent.category.LAUNCHER
ADDED from D:\Android\remote - WiFI\app\src\main\AndroidManifest.xml:39:17-77
	android:name
		ADDED from D:\Android\remote - WiFI\app\src\main\AndroidManifest.xml:39:27-74
activity#com.android.BluetoothRemote.BluetoothChat
ADDED from D:\Android\remote - WiFI\app\src\main\AndroidManifest.xml:43:9-47:82
	android:screenOrientation
		ADDED from D:\Android\remote - WiFI\app\src\main\AndroidManifest.xml:45:13-49
	android:windowSoftInputMode
		ADDED from D:\Android\remote - WiFI\app\src\main\AndroidManifest.xml:46:13-54
	android:theme
		ADDED from D:\Android\remote - WiFI\app\src\main\AndroidManifest.xml:47:13-80
	android:name
		ADDED from D:\Android\remote - WiFI\app\src\main\AndroidManifest.xml:44:13-69
service#com.android.BluetoothRemote.FloatService
ADDED from D:\Android\remote - WiFI\app\src\main\AndroidManifest.xml:49:9-76
	android:name
		ADDED from D:\Android\remote - WiFI\app\src\main\AndroidManifest.xml:49:18-73
activity#com.android.BluetoothRemote.UserRegisterActivity
ADDED from D:\Android\remote - WiFI\app\src\main\AndroidManifest.xml:51:9-85
	android:name
		ADDED from D:\Android\remote - WiFI\app\src\main\AndroidManifest.xml:51:19-82
activity#com.android.BluetoothRemote.HomeRegisterActivity
ADDED from D:\Android\remote - WiFI\app\src\main\AndroidManifest.xml:52:9-54:20
	android:theme
		ADDED from D:\Android\remote - WiFI\app\src\main\AndroidManifest.xml:53:13-56
	android:name
		ADDED from D:\Android\remote - WiFI\app\src\main\AndroidManifest.xml:52:19-82
meta-data#io.fabric.ApiKey
ADDED from D:\Android\remote - WiFI\app\src\main\AndroidManifest.xml:55:9-57:72
	android:value
		ADDED from D:\Android\remote - WiFI\app\src\main\AndroidManifest.xml:57:13-69
	android:name
		ADDED from D:\Android\remote - WiFI\app\src\main\AndroidManifest.xml:56:13-44
uses-sdk
INJECTED from D:\Android\remote - WiFI\app\src\main\AndroidManifest.xml reason: use-sdk injection requested
INJECTED from D:\Android\remote - WiFI\app\src\main\AndroidManifest.xml
INJECTED from D:\Android\remote - WiFI\app\src\main\AndroidManifest.xml
MERGED from [com.intuit.sdp:sdp-android:1.0.4] C:\Users\Feixin532\.gradle\caches\transforms-2\files-2.1\72eb092b316cfe7e9dcb38777221345a\AndroidManifest.xml:7:5-9:41
MERGED from [com.intuit.sdp:sdp-android:1.0.4] C:\Users\Feixin532\.gradle\caches\transforms-2\files-2.1\72eb092b316cfe7e9dcb38777221345a\AndroidManifest.xml:7:5-9:41
MERGED from [com.intuit.ssp:ssp-android:1.0.4] C:\Users\Feixin532\.gradle\caches\transforms-2\files-2.1\aab65885183651834ab13a9bb64bcf07\AndroidManifest.xml:7:5-9:41
MERGED from [com.intuit.ssp:ssp-android:1.0.4] C:\Users\Feixin532\.gradle\caches\transforms-2\files-2.1\aab65885183651834ab13a9bb64bcf07\AndroidManifest.xml:7:5-9:41
MERGED from [com.android.support:design:26.1.0] C:\Users\Feixin532\.gradle\caches\transforms-2\files-2.1\331258dbe2b7dd842c503e6f2613fdd9\AndroidManifest.xml:21:5-23:62
MERGED from [com.android.support:design:26.1.0] C:\Users\Feixin532\.gradle\caches\transforms-2\files-2.1\331258dbe2b7dd842c503e6f2613fdd9\AndroidManifest.xml:21:5-23:62
MERGED from [com.yanzhenjie:permission:1.0.5] C:\Users\Feixin532\.gradle\caches\transforms-2\files-2.1\12f39d0d86c2cb8ad971ad5f0d8c637f\AndroidManifest.xml:21:5-23:41
MERGED from [com.yanzhenjie:permission:1.0.5] C:\Users\Feixin532\.gradle\caches\transforms-2\files-2.1\12f39d0d86c2cb8ad971ad5f0d8c637f\AndroidManifest.xml:21:5-23:41
MERGED from [com.yanzhenjie.alertdialog:alertdialog:1.0.0] C:\Users\Feixin532\.gradle\caches\transforms-2\files-2.1\b66ad2e47225966fab96edc99ddef385\AndroidManifest.xml:6:5-8:41
MERGED from [com.yanzhenjie.alertdialog:alertdialog:1.0.0] C:\Users\Feixin532\.gradle\caches\transforms-2\files-2.1\b66ad2e47225966fab96edc99ddef385\AndroidManifest.xml:6:5-8:41
MERGED from [com.android.support:appcompat-v7:26.1.0] C:\Users\Feixin532\.gradle\caches\transforms-2\files-2.1\e902c54ac45c6c6889900456329c1fcb\AndroidManifest.xml:21:5-23:78
MERGED from [com.android.support:appcompat-v7:26.1.0] C:\Users\Feixin532\.gradle\caches\transforms-2\files-2.1\e902c54ac45c6c6889900456329c1fcb\AndroidManifest.xml:21:5-23:78
MERGED from [com.mylhyl:circleDialog:2.5.2] C:\Users\Feixin532\.gradle\caches\transforms-2\files-2.1\7c9f7ba78b06b827b703ffce848d9897\AndroidManifest.xml:8:5-10:41
MERGED from [com.mylhyl:circleDialog:2.5.2] C:\Users\Feixin532\.gradle\caches\transforms-2\files-2.1\7c9f7ba78b06b827b703ffce848d9897\AndroidManifest.xml:8:5-10:41
MERGED from [com.crashlytics.sdk.android:crashlytics:2.9.4] C:\Users\Feixin532\.gradle\caches\transforms-2\files-2.1\7b4dbf147fe0fbeec3ae671038e2215d\AndroidManifest.xml:7:5-43
MERGED from [com.crashlytics.sdk.android:crashlytics:2.9.4] C:\Users\Feixin532\.gradle\caches\transforms-2\files-2.1\7b4dbf147fe0fbeec3ae671038e2215d\AndroidManifest.xml:7:5-43
MERGED from [com.android.support:transition:26.1.0] C:\Users\Feixin532\.gradle\caches\transforms-2\files-2.1\b9af8a2df8f538873b303f610a5052b1\AndroidManifest.xml:20:5-44
MERGED from [com.android.support:transition:26.1.0] C:\Users\Feixin532\.gradle\caches\transforms-2\files-2.1\b9af8a2df8f538873b303f610a5052b1\AndroidManifest.xml:20:5-44
MERGED from [com.android.support:support-v4:26.1.0] C:\Users\Feixin532\.gradle\caches\transforms-2\files-2.1\6b9c20d066bb87e7554e6dca55ade6df\AndroidManifest.xml:21:5-23:54
MERGED from [com.android.support:support-v4:26.1.0] C:\Users\Feixin532\.gradle\caches\transforms-2\files-2.1\6b9c20d066bb87e7554e6dca55ade6df\AndroidManifest.xml:21:5-23:54
MERGED from [com.android.support:animated-vector-drawable:26.1.0] C:\Users\Feixin532\.gradle\caches\transforms-2\files-2.1\36d7f4cc534568e3df30e1b4b22eeef9\AndroidManifest.xml:20:5-44
MERGED from [com.android.support:animated-vector-drawable:26.1.0] C:\Users\Feixin532\.gradle\caches\transforms-2\files-2.1\36d7f4cc534568e3df30e1b4b22eeef9\AndroidManifest.xml:20:5-44
MERGED from [com.android.support:support-vector-drawable:26.1.0] C:\Users\Feixin532\.gradle\caches\transforms-2\files-2.1\ab0d89c81d40a7fb3711600e3929b248\AndroidManifest.xml:20:5-44
MERGED from [com.android.support:support-vector-drawable:26.1.0] C:\Users\Feixin532\.gradle\caches\transforms-2\files-2.1\ab0d89c81d40a7fb3711600e3929b248\AndroidManifest.xml:20:5-44
MERGED from [com.android.support:recyclerview-v7:26.1.0] C:\Users\Feixin532\.gradle\caches\transforms-2\files-2.1\96cf779f9eb396a2695add0ad4680f44\AndroidManifest.xml:20:5-44
MERGED from [com.android.support:recyclerview-v7:26.1.0] C:\Users\Feixin532\.gradle\caches\transforms-2\files-2.1\96cf779f9eb396a2695add0ad4680f44\AndroidManifest.xml:20:5-44
MERGED from [com.crashlytics.sdk.android:crashlytics-core:2.6.3] C:\Users\Feixin532\.gradle\caches\transforms-2\files-2.1\f23b120e4f3acf8b6ed20753d08afe2e\AndroidManifest.xml:50:5-43
MERGED from [com.crashlytics.sdk.android:crashlytics-core:2.6.3] C:\Users\Feixin532\.gradle\caches\transforms-2\files-2.1\f23b120e4f3acf8b6ed20753d08afe2e\AndroidManifest.xml:50:5-43
MERGED from [com.crashlytics.sdk.android:beta:1.2.9] C:\Users\Feixin532\.gradle\caches\transforms-2\files-2.1\29b21fb1ab580e7e34c0abadc5bb092f\AndroidManifest.xml:7:5-43
MERGED from [com.crashlytics.sdk.android:beta:1.2.9] C:\Users\Feixin532\.gradle\caches\transforms-2\files-2.1\29b21fb1ab580e7e34c0abadc5bb092f\AndroidManifest.xml:7:5-43
MERGED from [com.crashlytics.sdk.android:answers:1.4.2] C:\Users\Feixin532\.gradle\caches\transforms-2\files-2.1\3c10636eb41c17612128ff67009b6861\AndroidManifest.xml:7:5-43
MERGED from [com.crashlytics.sdk.android:answers:1.4.2] C:\Users\Feixin532\.gradle\caches\transforms-2\files-2.1\3c10636eb41c17612128ff67009b6861\AndroidManifest.xml:7:5-43
MERGED from [io.fabric.sdk.android:fabric:1.4.3] C:\Users\Feixin532\.gradle\caches\transforms-2\files-2.1\70fd9faec409ef14d057c8644904113b\AndroidManifest.xml:27:5-43
MERGED from [io.fabric.sdk.android:fabric:1.4.3] C:\Users\Feixin532\.gradle\caches\transforms-2\files-2.1\70fd9faec409ef14d057c8644904113b\AndroidManifest.xml:27:5-43
MERGED from [com.android.support:support-media-compat:26.1.0] C:\Users\Feixin532\.gradle\caches\transforms-2\files-2.1\defd8815fd31a4bc8756e8558b019db6\AndroidManifest.xml:21:5-23:63
MERGED from [com.android.support:support-media-compat:26.1.0] C:\Users\Feixin532\.gradle\caches\transforms-2\files-2.1\defd8815fd31a4bc8756e8558b019db6\AndroidManifest.xml:21:5-23:63
MERGED from [com.android.support:support-fragment:26.1.0] C:\Users\Feixin532\.gradle\caches\transforms-2\files-2.1\65a10bdaf87480b31b00320586cc3e81\AndroidManifest.xml:21:5-23:60
MERGED from [com.android.support:support-fragment:26.1.0] C:\Users\Feixin532\.gradle\caches\transforms-2\files-2.1\65a10bdaf87480b31b00320586cc3e81\AndroidManifest.xml:21:5-23:60
MERGED from [com.android.support:support-core-utils:26.1.0] C:\Users\Feixin532\.gradle\caches\transforms-2\files-2.1\2547a961fdab69d91ba514f00f3e1f03\AndroidManifest.xml:21:5-23:61
MERGED from [com.android.support:support-core-utils:26.1.0] C:\Users\Feixin532\.gradle\caches\transforms-2\files-2.1\2547a961fdab69d91ba514f00f3e1f03\AndroidManifest.xml:21:5-23:61
MERGED from [com.android.support:support-core-ui:26.1.0] C:\Users\Feixin532\.gradle\caches\transforms-2\files-2.1\d6798f9403eceb30cb986f38c7ee653c\AndroidManifest.xml:21:5-23:58
MERGED from [com.android.support:support-core-ui:26.1.0] C:\Users\Feixin532\.gradle\caches\transforms-2\files-2.1\d6798f9403eceb30cb986f38c7ee653c\AndroidManifest.xml:21:5-23:58
MERGED from [com.android.support:support-compat:26.1.0] C:\Users\Feixin532\.gradle\caches\transforms-2\files-2.1\5f249282ef1f5fce06d8097e077a7b03\AndroidManifest.xml:21:5-23:58
MERGED from [com.android.support:support-compat:26.1.0] C:\Users\Feixin532\.gradle\caches\transforms-2\files-2.1\5f249282ef1f5fce06d8097e077a7b03\AndroidManifest.xml:21:5-23:58
MERGED from [android.arch.lifecycle:runtime:1.0.0] C:\Users\Feixin532\.gradle\caches\transforms-2\files-2.1\d1a97019430a0c9126945afd0ce06d21\AndroidManifest.xml:20:5-22:41
MERGED from [android.arch.lifecycle:runtime:1.0.0] C:\Users\Feixin532\.gradle\caches\transforms-2\files-2.1\d1a97019430a0c9126945afd0ce06d21\AndroidManifest.xml:20:5-22:41
INJECTED from D:\Android\remote - WiFI\app\src\main\AndroidManifest.xml
INJECTED from D:\Android\remote - WiFI\app\src\main\AndroidManifest.xml
	tools:overrideLibrary
		ADDED from [com.android.support:design:26.1.0] C:\Users\Feixin532\.gradle\caches\transforms-2\files-2.1\331258dbe2b7dd842c503e6f2613fdd9\AndroidManifest.xml:23:9-59
	android:targetSdkVersion
		INJECTED from D:\Android\remote - WiFI\app\src\main\AndroidManifest.xml
		ADDED from D:\Android\remote - WiFI\app\src\main\AndroidManifest.xml
		INJECTED from D:\Android\remote - WiFI\app\src\main\AndroidManifest.xml
	android:minSdkVersion
		INJECTED from D:\Android\remote - WiFI\app\src\main\AndroidManifest.xml
		ADDED from D:\Android\remote - WiFI\app\src\main\AndroidManifest.xml
		INJECTED from D:\Android\remote - WiFI\app\src\main\AndroidManifest.xml
meta-data#android.support.VERSION
ADDED from [com.android.support:design:26.1.0] C:\Users\Feixin532\.gradle\caches\transforms-2\files-2.1\331258dbe2b7dd842c503e6f2613fdd9\AndroidManifest.xml:26:9-28:38
MERGED from [com.android.support:appcompat-v7:26.1.0] C:\Users\Feixin532\.gradle\caches\transforms-2\files-2.1\e902c54ac45c6c6889900456329c1fcb\AndroidManifest.xml:26:9-28:38
MERGED from [com.android.support:appcompat-v7:26.1.0] C:\Users\Feixin532\.gradle\caches\transforms-2\files-2.1\e902c54ac45c6c6889900456329c1fcb\AndroidManifest.xml:26:9-28:38
MERGED from [com.android.support:transition:26.1.0] C:\Users\Feixin532\.gradle\caches\transforms-2\files-2.1\b9af8a2df8f538873b303f610a5052b1\AndroidManifest.xml:23:9-25:38
MERGED from [com.android.support:transition:26.1.0] C:\Users\Feixin532\.gradle\caches\transforms-2\files-2.1\b9af8a2df8f538873b303f610a5052b1\AndroidManifest.xml:23:9-25:38
MERGED from [com.android.support:support-v4:26.1.0] C:\Users\Feixin532\.gradle\caches\transforms-2\files-2.1\6b9c20d066bb87e7554e6dca55ade6df\AndroidManifest.xml:26:9-28:38
MERGED from [com.android.support:support-v4:26.1.0] C:\Users\Feixin532\.gradle\caches\transforms-2\files-2.1\6b9c20d066bb87e7554e6dca55ade6df\AndroidManifest.xml:26:9-28:38
MERGED from [com.android.support:animated-vector-drawable:26.1.0] C:\Users\Feixin532\.gradle\caches\transforms-2\files-2.1\36d7f4cc534568e3df30e1b4b22eeef9\AndroidManifest.xml:23:9-25:38
MERGED from [com.android.support:animated-vector-drawable:26.1.0] C:\Users\Feixin532\.gradle\caches\transforms-2\files-2.1\36d7f4cc534568e3df30e1b4b22eeef9\AndroidManifest.xml:23:9-25:38
MERGED from [com.android.support:support-vector-drawable:26.1.0] C:\Users\Feixin532\.gradle\caches\transforms-2\files-2.1\ab0d89c81d40a7fb3711600e3929b248\AndroidManifest.xml:23:9-25:38
MERGED from [com.android.support:support-vector-drawable:26.1.0] C:\Users\Feixin532\.gradle\caches\transforms-2\files-2.1\ab0d89c81d40a7fb3711600e3929b248\AndroidManifest.xml:23:9-25:38
MERGED from [com.android.support:recyclerview-v7:26.1.0] C:\Users\Feixin532\.gradle\caches\transforms-2\files-2.1\96cf779f9eb396a2695add0ad4680f44\AndroidManifest.xml:23:9-25:38
MERGED from [com.android.support:recyclerview-v7:26.1.0] C:\Users\Feixin532\.gradle\caches\transforms-2\files-2.1\96cf779f9eb396a2695add0ad4680f44\AndroidManifest.xml:23:9-25:38
MERGED from [com.android.support:support-media-compat:26.1.0] C:\Users\Feixin532\.gradle\caches\transforms-2\files-2.1\defd8815fd31a4bc8756e8558b019db6\AndroidManifest.xml:26:9-28:38
MERGED from [com.android.support:support-media-compat:26.1.0] C:\Users\Feixin532\.gradle\caches\transforms-2\files-2.1\defd8815fd31a4bc8756e8558b019db6\AndroidManifest.xml:26:9-28:38
MERGED from [com.android.support:support-fragment:26.1.0] C:\Users\Feixin532\.gradle\caches\transforms-2\files-2.1\65a10bdaf87480b31b00320586cc3e81\AndroidManifest.xml:26:9-28:38
MERGED from [com.android.support:support-fragment:26.1.0] C:\Users\Feixin532\.gradle\caches\transforms-2\files-2.1\65a10bdaf87480b31b00320586cc3e81\AndroidManifest.xml:26:9-28:38
MERGED from [com.android.support:support-core-utils:26.1.0] C:\Users\Feixin532\.gradle\caches\transforms-2\files-2.1\2547a961fdab69d91ba514f00f3e1f03\AndroidManifest.xml:26:9-28:38
MERGED from [com.android.support:support-core-utils:26.1.0] C:\Users\Feixin532\.gradle\caches\transforms-2\files-2.1\2547a961fdab69d91ba514f00f3e1f03\AndroidManifest.xml:26:9-28:38
MERGED from [com.android.support:support-core-ui:26.1.0] C:\Users\Feixin532\.gradle\caches\transforms-2\files-2.1\d6798f9403eceb30cb986f38c7ee653c\AndroidManifest.xml:26:9-28:38
MERGED from [com.android.support:support-core-ui:26.1.0] C:\Users\Feixin532\.gradle\caches\transforms-2\files-2.1\d6798f9403eceb30cb986f38c7ee653c\AndroidManifest.xml:26:9-28:38
MERGED from [com.android.support:support-compat:26.1.0] C:\Users\Feixin532\.gradle\caches\transforms-2\files-2.1\5f249282ef1f5fce06d8097e077a7b03\AndroidManifest.xml:26:9-28:38
MERGED from [com.android.support:support-compat:26.1.0] C:\Users\Feixin532\.gradle\caches\transforms-2\files-2.1\5f249282ef1f5fce06d8097e077a7b03\AndroidManifest.xml:26:9-28:38
	android:value
		ADDED from [com.android.support:design:26.1.0] C:\Users\Feixin532\.gradle\caches\transforms-2\files-2.1\331258dbe2b7dd842c503e6f2613fdd9\AndroidManifest.xml:28:13-35
	android:name
		ADDED from [com.android.support:design:26.1.0] C:\Users\Feixin532\.gradle\caches\transforms-2\files-2.1\331258dbe2b7dd842c503e6f2613fdd9\AndroidManifest.xml:27:13-51
provider#com.crashlytics.android.CrashlyticsInitProvider
ADDED from [com.crashlytics.sdk.android:crashlytics:2.9.4] C:\Users\Feixin532\.gradle\caches\transforms-2\files-2.1\7b4dbf147fe0fbeec3ae671038e2215d\AndroidManifest.xml:12:9-16:39
	android:authorities
		ADDED from [com.crashlytics.sdk.android:crashlytics:2.9.4] C:\Users\Feixin532\.gradle\caches\transforms-2\files-2.1\7b4dbf147fe0fbeec3ae671038e2215d\AndroidManifest.xml:14:13-75
	android:exported
		ADDED from [com.crashlytics.sdk.android:crashlytics:2.9.4] C:\Users\Feixin532\.gradle\caches\transforms-2\files-2.1\7b4dbf147fe0fbeec3ae671038e2215d\AndroidManifest.xml:15:13-37
	android:initOrder
		ADDED from [com.crashlytics.sdk.android:crashlytics:2.9.4] C:\Users\Feixin532\.gradle\caches\transforms-2\files-2.1\7b4dbf147fe0fbeec3ae671038e2215d\AndroidManifest.xml:16:13-36
	android:name
		ADDED from [com.crashlytics.sdk.android:crashlytics:2.9.4] C:\Users\Feixin532\.gradle\caches\transforms-2\files-2.1\7b4dbf147fe0fbeec3ae671038e2215d\AndroidManifest.xml:13:13-75
meta-data#android.arch.lifecycle.VERSION
ADDED from [android.arch.lifecycle:runtime:1.0.0] C:\Users\Feixin532\.gradle\caches\transforms-2\files-2.1\d1a97019430a0c9126945afd0ce06d21\AndroidManifest.xml:25:9-27:47
	android:value
		ADDED from [android.arch.lifecycle:runtime:1.0.0] C:\Users\Feixin532\.gradle\caches\transforms-2\files-2.1\d1a97019430a0c9126945afd0ce06d21\AndroidManifest.xml:27:13-44
	android:name
		ADDED from [android.arch.lifecycle:runtime:1.0.0] C:\Users\Feixin532\.gradle\caches\transforms-2\files-2.1\d1a97019430a0c9126945afd0ce06d21\AndroidManifest.xml:26:13-58
